[gd_resource type="Theme" load_steps=6 format=2]

[ext_resource path="res://assets/fonts/swansea/Swansea-q3pd.ttf" type="DynamicFontData" id=1]

[sub_resource type="DynamicFont" id=45]
font_data = ExtResource( 1 )

[sub_resource type="StyleBoxFlat" id=47]
content_margin_left = 5.0
bg_color = Color( 1, 0.909804, 0.686275, 1 )
border_width_left = 2
border_width_top = 1
border_width_right = 2
border_width_bottom = 1
border_color = Color( 0.827451, 0.717647, 0.435294, 1 )
corner_radius_top_left = 4
corner_radius_top_right = 4
corner_radius_bottom_right = 4
corner_radius_bottom_left = 4

[sub_resource type="StyleBoxFlat" id=46]
content_margin_left = 5.0
content_margin_top = 10.0
bg_color = Color( 1, 0.909804, 0.686275, 1 )
border_width_left = 2
border_width_top = 1
border_width_right = 2
border_width_bottom = 1
border_color = Color( 0.827451, 0.717647, 0.435294, 1 )
corner_radius_top_left = 4
corner_radius_top_right = 4
corner_radius_bottom_right = 4
corner_radius_bottom_left = 4

[sub_resource type="StyleBoxFlat" id=1]
bg_color = Color( 0.827451, 0.717647, 0.435294, 1 )
border_width_left = 2
border_width_top = 2
border_width_right = 2
border_width_bottom = 2
border_color = Color( 0.639216, 0.552941, 0.333333, 1 )
corner_radius_top_left = 5
corner_radius_top_right = 5
corner_radius_bottom_right = 5
corner_radius_bottom_left = 5

[resource]
LineEdit/colors/cursor_color = Color( 0, 0, 0, 1 )
LineEdit/colors/font_color = Color( 0, 0, 0, 1 )
LineEdit/fonts/font = SubResource( 45 )
LineEdit/styles/normal = SubResource( 47 )
TextEdit/colors/caret_color = Color( 0, 0, 0, 1 )
TextEdit/colors/font_color = Color( 0, 0, 0, 1 )
TextEdit/colors/font_color_readonly = Color( 0, 0, 0, 1 )
TextEdit/colors/font_color_selected = Color( 0, 0, 0, 1 )
TextEdit/fonts/font = SubResource( 45 )
TextEdit/styles/normal = SubResource( 46 )
TextEdit/styles/read_only = SubResource( 46 )
VScrollBar/styles/grabber = SubResource( 1 )
VScrollBar/styles/grabber_highlight = SubResource( 1 )
VScrollBar/styles/grabber_pressed = SubResource( 1 )
VScrollBar/styles/scroll = null
VScrollBar/styles/scroll_focus = null
